*** special particles used in MintDalitz **
*MASS(MeV)    ,Err+   ,Err-   ,WIDTH(MeV)  ,Err+   ,Err-   ,I  ,G,J   ,P,C,A,PDG-MC ,Chrg,R,S,Name             ,Quarks         
9.990E+03     ,1.0E+01,1.0E+01,9.9E+09     ,3.0E+01,3.0E+01,0  ,+,0   ,+,+, ,   9981,   0, ,R,NonResS          ,??   
9.990E+03     ,1.0E+01,1.0E+01,9.9E+09     ,3.0E+01,3.0E+01,0  ,+,0   ,-,+, ,   9991,   0, ,R,NonResP          ,??   
9.990E+03     ,1.0E+01,1.0E+01,9.9E+09     ,3.0E+01,3.0E+01,1/2, ,1   ,+, ,F,   9983,   0, ,R,NonResA          ,??   
9.990E+03     ,1.0E+01,1.0E+01,9.9E+09     ,3.0E+01,3.0E+01,1/2, ,1   ,-, ,F,   9993,   0, ,R,NonResV          ,??   
9.990E+03     ,1.0E+01,1.0E+01,9.9E+09     ,3.0E+01,3.0E+01,0  ,+,2   ,+,+, ,   9985,   0, ,S,NonResT          ,??         
9.990E+03     ,1.0E+01,1.0E+01,9.9E+09     ,3.0E+01,3.0E+01,0  ,+,2   ,-,+, ,   9986,   0, ,S,NonResPT          ,??

***
